<?xml version="1.0" encoding="utf-8"?>
<!-- Generator: Adobe Illustrator 18.1.1, SVG Export Plug-In . SVG Version: 6.00 Build 0)  -->
<svg version="1.1" id="Layer_1" xmlns="http://www.w3.org/2000/svg" xmlns:xlink="http://www.w3.org/1999/xlink" x="0px" y="0px"
	 viewBox="0 0 400 400" enable-background="new 0 0 400 400" xml:space="preserve">
<path id="chulo_1_" fill="#FFFFFF" d="M200,62.5c-61.1,0-110.5,61.6-110.5,137.5c0,75.9,49.5,137.5,110.5,137.5
	c61,0,110.5-61.6,110.5-137.5C310.5,124.1,261,62.5,200,62.5z M196.6,111l6.1-18.6l6.1,18.6h19.6l-15.8,12.7l6.1,19.2l-15.9-11.2
	l-15.8,11.7l6.1-19.8L177.1,111L196.6,111L196.6,111z M261.7,203.9c-8.4,4.7-17.7,7.3-26.2,7.3c-0.1,0-0.2,0-0.4,0l20.2,27.4
	c7,9.4,7.9,14.2,7.9,18c0,14.9-13.8,27-29.4,27h-67.7c-15.5,0-28.2-12.1-28.2-27c0-8.2,4.5-15.8,9.4-21.4l18.7-24.6
	c-0.7,0-1.4,0.1-2.1,0.1c-8,0-16.4-2.1-24.3-6.1c-22-11-32.4-31.7-24.1-48.2c4.9-9.8,15.7-15.7,28.7-15.7c8,0,16.4,2.1,24.3,6.1
	c13.1,6.6,22.1,16.6,25.4,27.1l7-9.2l5.9,8c3.5-9.6,11.5-18.7,23.1-25.2c8.4-4.7,17.7-7.3,26.2-7.3c12.2,0,22.2,5.2,27.3,14.3
	C292.5,170.6,283.1,191.8,261.7,203.9z M146.9,190.2c-13.3-6.7-20.9-18.5-16.9-26.5c4-8,18-9.1,31.3-2.4s20.9,18.5,16.9,26.5
	C174.3,195.8,160.2,196.8,146.9,190.2z M269.3,162.5c4.4,7.8-2.6,20-15.5,27.3c-13,7.3-27,6.9-31.4-0.9s2.6-20,15.5-27.3
	C250.8,154.3,264.9,154.7,269.3,162.5z M235,245.8c6,0,10.8,4.8,10.8,10.8c0,6-4.8,10.8-10.8,10.8h-64.7c-6,0-10.8-4.8-10.8-10.8
	c0-6,4.8-10.8,10.8-10.8H235z M179.4,221l15.2-20.4c3.5-4.8,9.3-4.8,12.9,0l15.2,20.4c3.5,4.8,1.6,8.7-4.4,8.7h-34.5
	C177.9,229.7,175.9,225.8,179.4,221z"/>
</svg>
