<?xml version="1.0" encoding="utf-8"?>
<!-- Generator: Adobe Illustrator 19.2.0, SVG Export Plug-In . SVG Version: 6.00 Build 0)  -->
<svg version="1.1" id="Layer_1" xmlns="http://www.w3.org/2000/svg" xmlns:xlink="http://www.w3.org/1999/xlink" x="0px" y="0px"
	 viewBox="0 0 1080 1080" style="enable-background:new 0 0 1080 1080;" xml:space="preserve">
<style type="text/css">
	.st0{fill:#214275;}
</style>
<path class="st0" d="M611.3,594.9c0,39-31.8,70.8-70.8,70.8s-71.7-31.8-71.7-70.8s32.7-70.8,71.7-70.8S611.3,555.9,611.3,594.9z
	 M377.9,331.6H871V792H209V331.6h103.5V288h65.4V331.6z M663,594.9c0-68.1-55.4-123.5-122.6-123.5c-68.1,0-123.5,55.4-123.5,123.5
	s55.4,123.5,123.5,123.5C607.7,718.4,663,663,663,594.9z M837.4,503.2v-138H242.6v138h181.6c27.2-34.5,69-56.3,116.2-56.3
	c46.3,0,88.1,21.8,115.3,56.3H837.4z"/>
</svg>
